%YAML 1.1
%TAG !u! tag:unity3d.com,2011:
--- !u!1045 &1
EditorBuildSettings:
  m_ObjectHideFlags: 0
  serializedVersion: 2
  m_Scenes:
  - enabled: 1
    path: Assets/Aset/Scenes/Scene.unity
    guid: 8d1f5539ec987044a83089c502145c63
  m_configObjects: {}
